<?xml version="1.0" encoding="iso-8859-1"?>
<!-- Generator: Adobe Illustrator 19.0.0, SVG Export Plug-In . SVG Version: 6.00 Build 0)  -->
<svg version="1.1" id="Capa_1" xmlns="http://www.w3.org/2000/svg" xmlns:xlink="http://www.w3.org/1999/xlink" x="0px" y="0px"
	 viewBox="0 0 480 480" style="enable-background:new 0 0 480 480;" xml:space="preserve">
<path id="XMLID_478_" d="M190,350c22.056,0,40-17.944,40-40s-17.944-40-40-40s-40,17.944-40,40S167.944,350,190,350z M190,290
	c11.028,0,20,8.972,20,20s-8.972,20-20,20s-20-8.972-20-20S178.972,290,190,290z M290,60V40c0-5.522,4.478-10,10-10s10,4.478,10,10
	v20c0,5.522-4.478,10-10,10S290,65.522,290,60z M230,60V10c0-5.522,4.478-10,10-10s10,4.478,10,10v50c0,5.522-4.478,10-10,10
	S230,65.522,230,60z M446.022,400.452c2.646-2.111,5.188-4.384,7.617-6.813c3.905-3.905,3.905-10.237,0-14.143l-40.983-40.983
	l66.895-215.55c0.941-3.035,0.385-6.337-1.5-8.896C476.166,111.511,473.178,110,470,110H10c-3.178,0-6.166,1.511-8.051,4.068
	c-1.885,2.559-2.441,5.86-1.5,8.896L86.426,400H40c-22.056,0-40,17.944-40,40s17.944,40,40,40h400c22.056,0,40-17.944,40-40
	C480,419.99,465.232,403.365,446.022,400.452z M431.928,386.07C419.891,395.111,405.321,400,390,400
	c-18.697,0-36.276-7.281-49.497-20.503C327.281,366.276,320,348.697,320,330c0-15.321,4.889-29.891,13.93-41.928L431.928,386.07z
	 M23.574,130h432.852l-21.724,70H178.734c-4.451-17.233-20.13-30-38.734-30s-34.283,12.767-38.734,30H45.298L23.574,130z M160,210
	c0,11.028-8.972,20-20,20s-20-8.972-20-20s8.972-20,20-20S160,198.972,160,210z M51.505,220h49.761c4.451,17.233,20.13,30,38.734,30
	s34.283-12.767,38.734-30h249.761l-31.82,102.533l-56.172-56.173c-3.906-3.904-10.236-3.904-14.143,0
	C309.361,283.359,300,305.96,300,330s9.361,46.641,26.36,63.64c2.256,2.255,4.611,4.378,7.055,6.36H107.367L51.505,220z M440,460H40
	c-11.028,0-20-8.972-20-20s8.972-20,20-20h59.767c0.152,0.003,0.306,0.003,0.46,0H440c11.028,0,20,8.972,20,20S451.028,460,440,460z
	 M170,60V40c0-5.522,4.478-10,10-10s10,4.478,10,10v20c0,5.522-4.478,10-10,10S170,65.522,170,60z"/>
<g>
</g>
<g>
</g>
<g>
</g>
<g>
</g>
<g>
</g>
<g>
</g>
<g>
</g>
<g>
</g>
<g>
</g>
<g>
</g>
<g>
</g>
<g>
</g>
<g>
</g>
<g>
</g>
<g>
</g>
</svg>
