<?xml version="1.0" encoding="iso-8859-1"?>
<!-- Generator: Adobe Illustrator 19.0.0, SVG Export Plug-In . SVG Version: 6.00 Build 0)  -->
<svg version="1.1" id="Capa_1" xmlns="http://www.w3.org/2000/svg" xmlns:xlink="http://www.w3.org/1999/xlink" x="0px" y="0px"
	 viewBox="0 0 512 512" style="enable-background:new 0 0 512 512;" xml:space="preserve">
<g>
	<g>
		<path d="M359.205,94h-9.436l9.078-54.807c1.559-9.407-4.817-18.379-14.214-20c-9.391-1.623-18.411,4.694-20.095,14.079L313.636,94
			h-22.637l-10.902-60.728c-1.684-9.386-10.714-15.706-20.095-14.08c-9.396,1.621-15.772,10.593-14.215,20L254.865,94h-9.57
			c-15.188,0-27.545,12.356-27.545,27.545v27.91c0,15.188,12.356,27.545,27.545,27.545h23.317l14.455,87.272l-37.191,207.162
			c0,0.001,0,0,0,0.001c-0.969,5.392,0.229,10.833,3.373,15.32c3.144,4.487,7.848,7.471,13.246,8.402
			c1.174,0.203,2.351,0.303,3.518,0.303c4.199,0,8.285-1.296,11.779-3.78c4.466-3.174,7.418-7.898,8.313-13.303l16.212-97.881
			l16.212,97.881c0.896,5.405,3.848,10.129,8.313,13.303c3.495,2.483,7.58,3.779,11.778,3.779c1.167,0,2.344-0.101,3.518-0.303
			c5.398-0.931,10.104-3.916,13.247-8.402s4.342-9.928,3.373-15.319l-37.155-207.376L336.022,177h23.183
			c15.188,0,27.545-12.356,27.545-27.545v-27.91C386.75,106.357,374.394,94,359.205,94z M310.943,109l-8.625,48.045L293.692,109
			H310.943z M245.295,162c-6.917,0-12.545-5.627-12.545-12.545v-27.91c0-6.917,5.628-12.545,12.545-12.545h12.054l8.779,53H245.295z
			 M260.586,36.741c-0.216-1.302,0.667-2.543,1.967-2.768c1.303-0.226,2.546,0.649,2.78,1.948l29.365,163.566l-3.722,20.733
			L260.586,36.741z M271.307,475.926c-0.237,1.433-1.02,2.686-2.204,3.527c-1.185,0.841-2.625,1.169-4.057,0.922
			s-2.679-1.038-3.512-2.228c-0.834-1.189-1.151-2.632-0.895-4.062l7.648-42.602l10.098,1.703L271.307,475.926z M343.995,474.085
			c0.257,1.43-0.06,2.873-0.894,4.062c-0.833,1.189-2.081,1.981-3.513,2.228c-1.431,0.248-2.871-0.081-4.056-0.922
			c-1.184-0.842-1.967-2.094-2.204-3.527l-7.079-42.74l10.098-1.703L343.995,474.085z M333.697,416.719l-9.898,1.669l-13.878-83.792
			l4.334-26.173L333.697,416.719z M280.836,418.388l-9.898-1.669l68.363-380.797c0.209-1.161,1.229-1.983,2.371-1.983
			c0.135,0,0.271,0.012,0.409,0.035c1.3,0.225,2.182,1.465,1.966,2.767L280.836,418.388z M371.75,149.455
			c0,6.917-5.628,12.545-12.545,12.545h-20.699l8.779-53h11.92c6.917,0,12.545,5.627,12.545,12.545V149.455z"/>
	</g>
</g>
<g>
	<g>
		<path d="M163.546,0H44.954C28.851,0,15.75,13.101,15.75,29.204v106.582C15.75,149.138,26.612,160,39.964,160h128.572
			c13.352,0,24.214-10.862,24.214-24.214V29.204C192.75,13.101,179.649,0,163.546,0z M80.75,145H39.964
			c-5.08,0-9.214-4.133-9.214-9.214V111.3c4.208,2.353,9.05,3.7,14.204,3.7H80.75V145z M80.75,100H44.954
			c-7.832,0-14.204-6.372-14.204-14.204V85.3c4.208,2.353,9.05,3.7,14.204,3.7H80.75V100z M80.75,74H44.954
			c-7.832,0-14.204-6.372-14.204-14.204V29.204C30.75,21.372,37.122,15,44.954,15H80.75V74z M112.75,145h-17v-30h17V145z
			 M112.75,100h-17V15h17V100z M177.75,135.786c0,5.081-4.134,9.214-9.214,9.214H127.75v-30h35.796c5.154,0,9.997-1.347,14.204-3.7
			V135.786z M177.75,85.796c0,7.832-6.372,14.204-14.204,14.204H127.75V89h35.796c5.154,0,9.997-1.347,14.204-3.7V85.796z
			 M177.75,59.796c0,7.832-6.372,14.204-14.204,14.204H127.75V15h35.796c7.832,0,14.204,6.372,14.204,14.204V59.796z"/>
	</g>
</g>
<g>
	<g>
		<path d="M163.546,175H44.954c-16.104,0-29.204,13.101-29.204,29.204v106.582C15.75,324.138,26.612,335,39.964,335h128.572
			c13.352,0,24.214-10.862,24.214-24.214V204.204C192.75,188.101,179.649,175,163.546,175z M127.75,190h35.796
			c7.832,0,14.204,6.372,14.204,14.204v30.592c0,7.832-6.372,14.204-14.204,14.204H127.75V190z M127.75,264h35.796
			c5.154,0,9.997-1.347,14.204-3.7v0.496c0,7.832-6.372,14.204-14.204,14.204H127.75V264z M95.75,190h17v85h-17V190z M30.75,204.204
			c0-7.832,6.372-14.204,14.204-14.204H80.75v59H44.954c-7.832,0-14.204-6.372-14.204-14.204V204.204z M30.75,260.3
			c4.208,2.353,9.05,3.7,14.204,3.7H80.75v11H44.954c-7.832,0-14.204-6.372-14.204-14.204V260.3z M39.964,320
			c-5.08,0-9.214-4.133-9.214-9.214V286.3c4.208,2.353,9.05,3.7,14.204,3.7H80.75v30H39.964z M95.75,320v-30h17v30H95.75z
			 M168.536,320H127.75v-30h35.796c5.154,0,9.997-1.347,14.204-3.7v24.486C177.75,315.867,173.616,320,168.536,320z"/>
	</g>
</g>
<g>
	<g>
		<path d="M163.546,352H44.954c-16.104,0-29.204,13.101-29.204,29.204v106.582C15.75,501.138,26.612,512,39.964,512h128.572
			c13.352,0,24.214-10.862,24.214-24.214V381.204C192.75,365.101,179.649,352,163.546,352z M80.75,497H39.964
			c-5.08,0-9.214-4.133-9.214-9.214V463.3c4.208,2.353,9.05,3.7,14.204,3.7H80.75V497z M80.75,452H44.954
			c-7.832,0-14.204-6.372-14.204-14.204V437.3c4.208,2.353,9.05,3.7,14.204,3.7H80.75V452z M80.75,426H44.954
			c-7.832,0-14.204-6.372-14.204-14.204v-30.592c0-7.832,6.372-14.204,14.204-14.204H80.75V426z M112.75,497h-17v-30h17V497z
			 M177.75,487.786c0,5.081-4.134,9.214-9.214,9.214H127.75v-30h35.796c5.154,0,9.997-1.347,14.204-3.7V487.786z M177.75,437.796
			c0,7.832-6.372,14.204-14.204,14.204H127.75v-11h35.796c5.154,0,9.997-1.347,14.204-3.7V437.796z M163.546,426H127.75v-4.382
			c0-3.83-2.919-7.024-6.734-7.372c-0.064-0.006-0.127-0.012-0.191-0.018c-4.334-0.412-8.075,3.019-8.075,7.372V452h-17v-85h17
			v8.102c0,4.373,3.774,7.812,8.124,7.368c0.064-0.007,0.128-0.013,0.191-0.019c3.793-0.373,6.684-3.556,6.684-7.367V367h35.796
			c7.845,0,14.204,6.359,14.204,14.204v30.592h0.001C177.75,419.641,171.391,426,163.546,426z"/>
	</g>
</g>
<g>
	<g>
		<path d="M419.25,180.5c-42.458,0-77,34.542-77,77s34.542,77,77,77s77-34.542,77-77S461.708,180.5,419.25,180.5z M419.25,319.5
			c-34.187,0-62-27.813-62-62s27.813-62,62-62s62,27.813,62,62S453.437,319.5,419.25,319.5z"/>
	</g>
</g>
<g>
	<g>
		<path d="M419.25,203c-30.052,0-54.5,24.449-54.5,54.5c0,30.051,24.448,54.5,54.5,54.5s54.5-24.449,54.5-54.5
			C473.75,227.449,449.302,203,419.25,203z M419.25,297c-21.78,0-39.5-17.72-39.5-39.5c0-21.78,17.72-39.5,39.5-39.5
			c21.78,0,39.5,17.72,39.5,39.5C458.75,279.28,441.03,297,419.25,297z"/>
	</g>
</g>
<g>
</g>
<g>
</g>
<g>
</g>
<g>
</g>
<g>
</g>
<g>
</g>
<g>
</g>
<g>
</g>
<g>
</g>
<g>
</g>
<g>
</g>
<g>
</g>
<g>
</g>
<g>
</g>
<g>
</g>
</svg>
